{
  "data": [
    {
      "id": 0,
      "code": "silly_wallpaper",
      "media": {
        "url": "silly_wallpaper/mp4/1.mp4",
        "ext": ".mp4"
      }
    },
    {
      "id": 1,
      "code": "silly_wallpaper",
      "media": {
        "url": "silly_wallpaper/mp4/2.mp4",
        "ext": ".mp4"
      }
    },
    {
      "id": 2,
      "code": "silly_wallpaper",
      "media": {
        "url": "silly_wallpaper/mp4/3.mp4",
        "ext": ".mp4"
      }
    },
    {
      "id": 3,
      "code": "silly_wallpaper",
      "media": {
        "url": "silly_wallpaper/mp4/4.mp4",
        "ext": ".mp4"
      }
    },
    {
      "id": 4,
      "code": "silly_wallpaper",
      "media": {
        "url": "silly_wallpaper/mp4/5.mp4",
        "ext": ".mp4"
      }
    },
    {
      "id": 5,
      "code": "silly_wallpaper",
      "media": {
        "url": "silly_wallpaper/mp4/6.mp4",
        "ext": ".mp4"
      }
    },
    {
      "id": 6,
      "code": "silly_wallpaper",
      "media": {
        "url": "silly_wallpaper/mp4/7.mp4",
        "ext": ".mp4"
      }
    },
    {
      "id": 7,
      "code": "silly_wallpaper",
      "media": {
        "url": "silly_wallpaper/mp4/8.mp4",
        "ext": ".mp4"
      }
    },
    {
      "id": 8,
      "code": "silly_wallpaper",
      "media": {
        "url": "silly_wallpaper/mp4/9.mp4",
        "ext": ".mp4"
      }
    },
    {
      "id": 9,
      "code": "silly_wallpaper",
      "media": {
        "url": "silly_wallpaper/mp4/10.mp4",
        "ext": ".mp4"
      }
    },
    {
      "id": 10,
      "code": "silly_wallpaper",
      "media": {
        "url": "silly_wallpaper/mp4/11.mp4",
        "ext": ".mp4"
      }
    },
    {
      "id": 11,
      "code": "silly_wallpaper",
      "media": {
        "url": "silly_wallpaper/mp4/12.mp4",
        "ext": ".mp4"
      }
    },
    {
      "id": 12,
      "code": "silly_wallpaper",
      "media": {
        "url": "silly_wallpaper/mp4/13.mp4",
        "ext": ".mp4"
      }
    },
    {
      "id": 13,
      "code": "silly_wallpaper",
      "media": {
        "url": "silly_wallpaper/mp4/14.mp4",
        "ext": ".mp4"
      }
    },
    {
      "id": 14,
      "code": "silly_wallpaper",
      "media": {
        "url": "silly_wallpaper/mp4/15.mp4",
        "ext": ".mp4"
      }
    },
  ],
  "meta": {
    "pagination": {
      "page": 1,
      "pageSize": 5,
      "pageCount": 3,
      "total": 15
    }
  }
}
